module user_admin

go 1.21.1

require (
	github.com/gin-gonic/gin v1.9.1
	github.com/jinzhu/gorm v1.9.16
)

require (
	github.com/BurntSushi/toml v1.2.1 // indirect
	github.com/bytedance/sonic v1.10.2 // indirect
	github.com/chenzhuoyu/base64x v0.0.0-20230717121745-296ad89f973d // indirect
	github.com/chenzhuoyu/iasm v0.9.1 // indirect
	github.com/gabriel-vasile/mimetype v1.4.3 // indirect
	github.com/gin-contrib/cors v1.5.0 // indirect
	github.com/gin-contrib/sse v0.1.0 // indirect
	github.com/go-playground/locales v0.14.1 // indirect
	github.com/go-playground/universal-translator v0.18.1 // indirect
	github.com/go-playground/validator/v10 v10.16.0 // indirect
	github.com/goccy/go-json v0.10.2 // indirect
	github.com/google/go-cmp v0.5.9 // indirect
	github.com/jinzhu/inflection v1.0.0 // indirect
	github.com/json-iterator/go v1.1.12 // indirect
	github.com/klauspost/cpuid/v2 v2.2.6 // indirect
	github.com/leodido/go-urn v1.2.4 // indirect
	github.com/lib/pq v1.10.9 // indirect
	github.com/mattn/go-isatty v0.0.20 // indirect
	github.com/mattn/go-sqlite3 v1.14.18 // indirect
	github.com/modern-go/concurrent v0.0.0-20180306012644-bacd9c7ef1dd // indirect
	github.com/modern-go/reflect2 v1.0.2 // indirect
	github.com/pelletier/go-toml/v2 v2.1.0 // indirect
	github.com/sergi/go-diff v1.1.0 // indirect
	github.com/streadway/amqp v1.1.0 // indirect
	github.com/twitchyliquid64/golang-asm v0.15.1 // indirect
	github.com/ugorji/go/codec v1.2.12 // indirect
	golang.org/x/arch v0.6.0 // indirect
	golang.org/x/crypto v0.17.0 // indirect
	golang.org/x/exp/typeparams v0.0.0-20221212164502-fae10dda9338 // indirect
	golang.org/x/mod v0.14.0 // indirect
	golang.org/x/net v0.19.0 // indirect
	golang.org/x/sync v0.4.0 // indirect
	golang.org/x/sys v0.15.0 // indirect
	golang.org/x/telemetry v0.0.0-20231114163143-69313e640400 // indirect
	golang.org/x/text v0.14.0 // indirect
	golang.org/x/tools v0.14.1-0.20231114185516-c9d3e7de13fd // indirect
	golang.org/x/tools/gopls v0.14.2 // indirect
	golang.org/x/vuln v1.0.1 // indirect
	google.golang.org/protobuf v1.31.0 // indirect
	gopkg.in/yaml.v3 v3.0.1 // indirect
	honnef.co/go/tools v0.4.5 // indirect
	mvdan.cc/gofumpt v0.4.0 // indirect
	mvdan.cc/xurls/v2 v2.4.0 // indirect
)
